<svg width="32" height="32" viewBox="0 0 32 32" fill="none" xmlns="http://www.w3.org/2000/svg">
<rect width="32" height="32" rx="16" fill="#659961"/>
<path d="M21.0983 18.2515L17.6667 18.9165C15.3483 17.7532 13.9167 16.4165 13.0833 14.3332L13.725 10.8915L12.5125 7.6665H9.38668C8.44668 7.6665 7.70668 8.44317 7.84751 9.37234C8.19751 11.6915 9.23085 15.8973 12.25 18.9165C15.4208 22.0873 19.9883 23.4632 22.5017 24.0107C23.4725 24.2215 24.3333 23.4648 24.3333 22.4707V19.484L21.0983 18.2515Z" fill="white"/>
</svg>
