<svg xmlns="http://www.w3.org/2000/svg" width="61" height="60" viewBox="0 0 61 60" fill="none">
    <path d="M45.5 50L55.06 40.44C55.3414 40.159 55.4996 39.7777 55.5 39.38V26.25C55.5 25.2554 55.1049 24.3016 54.4016 23.5983C53.6984 22.8951 52.7446 22.5 51.75 22.5C50.7554 22.5 49.8016 22.8951 49.0984 23.5983C48.3951 24.3016 48 25.2554 48 26.25V37.5" stroke="#659961" stroke-width="3" stroke-linecap="round" stroke-linejoin="round"/>
    <path d="M45.5 40L47.645 37.855C47.7577 37.7425 47.8471 37.6088 47.908 37.4616C47.9689 37.3145 48.0002 37.1568 48 36.9975C47.9997 36.7727 47.9368 36.5524 47.8185 36.3612C47.7002 36.1701 47.5311 36.0156 47.33 35.915L46.2225 35.3625C45.2842 34.8934 44.2222 34.7312 43.1866 34.899C42.1511 35.0668 41.1946 35.5561 40.4525 36.2975L38.215 38.535C37.2773 39.4725 36.7503 40.744 36.75 42.07V50M15.5 50L5.94 40.44C5.65862 40.159 5.50035 39.7777 5.5 39.38V26.25C5.5 25.2554 5.89509 24.3016 6.59835 23.5983C7.30161 22.8951 8.25544 22.5 9.25 22.5C10.2446 22.5 11.1984 22.8951 11.9017 23.5983C12.6049 24.3016 13 25.2554 13 26.25V37.5" stroke="#659961" stroke-width="3" stroke-linecap="round" stroke-linejoin="round"/>
    <path d="M15.5 40L13.355 37.855C13.2424 37.7424 13.1531 37.6087 13.0922 37.4616C13.0313 37.3144 13 37.1567 13 36.9975C13 36.54 13.26 36.1225 13.67 35.915L14.7775 35.3625C15.7158 34.8934 16.7778 34.7312 17.8134 34.899C18.8489 35.0668 19.8054 35.5561 20.5475 36.2975L22.785 38.535C23.7227 39.4725 24.2497 40.744 24.25 42.07V50M34.6675 30H26.3325V24.1675H20.5V15.8325H26.3325V10H34.6675V15.8325H40.5V24.1675H34.6675V30Z" stroke="#659961" stroke-width="3" stroke-linecap="round" stroke-linejoin="round"/>
</svg>